system("pause");
     for (int i = 0; i < 52; i++) //as 52 cartas
     {
        cout<<Ncartas[i].naipe;
        cout<<Ncartas[i].numero<<endl;
        if (Ncartas[i].aberta)
        {
            cout<<"True";
        } else {
            cout<<"False";
        }
     }
     system("pause");